…
totalPlantsCount <- ucnrsPlantDataSubset %>% 
  group_by(reserve) %>% 
  summarize(count = n())

plantsComparisonTable <- left_join(matchingPlantsCount, totalPlantsCount, 
                                   by = "reserve", suffix = c("_matching", "_total")) %>% 
  mutate(match_ratio = count_matching / count_total) %>% 
  arrange(desc(match_ratio))

plantsComparisonTable
```

```
## # A tibble: 30 x 4
##    reserve                          count_matching count_total match_ratio
##    <chr>                                     <int>       <int>       <dbl>
##  1 Sedgewick                                   193         417       0.463
##  2 Motte Rimrock                                85         192       0.443
##  3 Blue Oak Ranch                              193         462       0.418
##  4 Stebbins Cold Canyon                        148         372       0.398
##  5 Stunt Ranch Santa Monica Mounta~            113         297       0.380
##  6 Quail Ridge                                 107         287       0.373
##  7 Burns Pinon Ridge                           100         272       0.368
##  8 San Joaquin Freshwater Marsh                 94         258       0.364
##  9 Hastings                                    229         646       0.354
## 10 Dawson Los Monos Canyon                     104         294       0.354
## # ... with 20 more rows
```
…
matchingPlantsArranged$reserve_list[idx_max] <- 
    paste(matchingPlantsArranged$reserve[idx_max])

# Combine the data

matchingPlantsReservesCombined <- matchingPlantsArranged %>% 
  distinct(genus, species, sublabel, reserve_list) %>% 
  right_join(matchingPlantsReserves, by = c("genus", "species", "sublabel"))

matchingPlantsReservesCombined
```

```
## # A tibble: 603 x 5
##    genus         species         sublabel  reserve_list              count
##    <chr>         <chr>           <chr>     <chr>                     <int>
##  1 Abies         concolor        <NA>      James San Jacinto Mounta~     2
##  2 Acamptopappus sphaerocephalus hirtellus Sweeney Granite Mountains     1
##  3 Acer          macrophyllum    <NA>      Angelo Coast Range, Blue~     9
##  4 Achillea      millefolium     <NA>      Angelo Coast Range, Blue~    17
##  5 Achyrachaena  mollis          <NA>      Blue Oak Ranch, Hastings~     8
##  6 Acourtia      microcephala    <NA>      Dawson Los Monos Canyon,~     5
##  7 Aesculus      californica     <NA>      Angelo Coast Range, Blue~     8
##  8 Agoseris      grandiflora     <NA>      Angelo Coast Range, Bode~    11
##  9 Agoseris      retrorsa        <NA>      Boyd Deep Canyon, Chicke~     4
## 10 Ailanthus     altissima       <NA>      McLaughlin, Quail Ridge,~     3
## # ... with 593 more rows
```
…
totalAnimalsCount <- ucnrsAnimalDataSubset %>% 
  group_by(reserve) %>% 
  summarize(count = n())

animalsComparisonTable <- left_join(matchingAnimalsCount, totalAnimalsCount, 
                                   by = "reserve", suffix = c("_matching", "_total")) %>% 
  mutate(match_ratio = count_matching / count_total) %>% 
  arrange(desc(match_ratio))

animalsComparisonTable
```

```
## # A tibble: 31 x 4
##    reserve                          count_matching count_total match_ratio
##    <chr>                                     <int>       <int>       <dbl>
##  1 <NA>                                          1           1       1.00 
##  2 Dawson Los Monos Canyon Reserve              96         126       0.762
##  3 Kendall-Frost Missions Bay Mars~            104         151       0.689
##  4 Elliot Chaparral Reserve                    107         158       0.677
##  5 Boyd Deep Canyon Desert Researc~            207         325       0.637
##  6 Carpinteria Salt Marsh Reserve              130         205       0.634
##  7 Scripps Coastal Reserve                     118         187       0.631
##  8 Box Springs Reserve                          13          21       0.619
##  9 Stunt Ranch Reserve                          84         139       0.604
## 10 Motte Rimrock Reserve                       144         249       0.578
## # ... with 21 more rows
```
…
matchingAnimalsArranged$reserve_list[idx_max] <- 
    paste(matchingAnimalsArranged$reserve[idx_max])

# Combine the data

matchingAnimalsReservesCombined <- matchingAnimalsArranged %>% 
  distinct(genus, species, sublabel1, reserve_list) %>% 
  right_join(matchingAnimalsReserves, by = c("genus", "species", "sublabel1"))

matchingAnimalsReservesCombined
```

```
## # A tibble: 320 x 5
##    genus        species      sublabel1 reserve_list                  count
##    <chr>        <chr>        <chr>     <chr>                         <int>
##  1 Accipiter    cooperii     <NA>      "Angelo Coast Range Reserve,~    20
##  2 Accipiter    gentilis     <NA>      "Angelo Coast Range Reserve,~     6
##  3 Accipiter    striatus     <NA>      "Angelo Coast Range Reserve,~    19
##  4 Actinemys    marmorata    <NA>      Angelo Coast Range Reserve, ~     3
##  5 Actitis      macularia    <NA>      "Angelo Coast Range Reserve,~    10
##  6 Aechmophorus clarkii      <NA>      Bodega Marine Reserve, Carpi~     7
##  7 Aechmophorus occidentalis <NA>      Angelo Coast Range Reserve, ~     9
##  8 Aegolius     acadicus     <NA>      Angelo Coast Range Reserve, ~    11
##  9 Aeronautes   saxatalis    <NA>      "Blue Oak Ranch Reserve, Box~    19
## 10 Agelaius     phoeniceus   <NA>      "Angelo Coast Range Reserve,~    17
## # ... with 310 more rows
```
…
```r
ratioRareOrUniqueAnimals
```

```
## [1] 0.2436261
```

```r
uniquePlants
```

```
## # A tibble: 361 x 4
##    genus       species       separator_label sublabel   
##    <chr>       <chr>         <chr>           <chr>      
##  1 Allium      howellii      var.            howellii   
##  2 Allium      lacunosum     var.            davisiae   
##  3 Allium      peninsulare   var.            peninsulare
##  4 Rhus        aromatica     <NA>            <NA>       
##  5 Cicuta      douglasii     <NA>            <NA>       
##  6 Perideridia pringlei      <NA>            <NA>       
##  7 Chaenactis  glabriuscula  var.            megacephala
##  8 Chaenactis  santolinoides <NA>            <NA>       
##  9 Chaenactis  xantiana      <NA>            <NA>       
## 10 Crepis      acuminata     <NA>            <NA>       
## # ... with 351 more rows
```

```r
uniqueAnimals
```

```
## # A tibble: 34 x 4
##    genus         species      sublabel1    sublabel2
##    <chr>         <chr>        <chr>        <chr>    
##  1 Colinus       virginianus  <NA>         <NA>     
##  2 Falco         peregrinus   anatum       <NA>     
##  3 Porzana       Carolina     <NA>         <NA>     
##  4 Recurvirostra american     <NA>         <NA>     
##  5 Hydroprogne   caspia       <NA>         <NA>     
##  6 Strix         occidentalis occidentalis <NA>     
##  7 Aeronautes    vauxi        <NA>         <NA>     
##  8 Hylocichla    mustelina    <NA>         <NA>     
##  9 Myadestes     townsendii   <NA>         <NA>     
## 10 Setophaga     coronata     coronata     group    
## # ... with 24 more rows
```

```r
rarePlants
```

```
## # A tibble: 304 x 5
##    genus           species         sublabel   reserve_list           count
##    <chr>           <chr>           <chr>      <chr>                  <int>
##  1 Abies           concolor        <NA>       James San Jacinto Mou~     2
##  2 Acamptopappus   sphaerocephalus hirtellus  Sweeney Granite Mount~     1
##  3 Ailanthus       altissima       <NA>       McLaughlin, Quail Rid~     3
##  4 Allium          burlewii        <NA>       Boyd Deep Canyon, Jam~     2
##  5 Allium          fimbriatum      fimbriatum Boyd Deep Canyon, Bur~     3
##  6 Ambrosia        acanthicarpa    <NA>       Boyd Deep Canyon, Bur~     3
##  7 Amsinckia       intermedia      <NA>       Landells-Hill Big Cre~     1
##  8 Amsinckia       tessellata      tessellata Boyd Deep Canyon, Swe~     2
##  9 Ancistrocarphus filagineus      <NA>       McLaughlin, Motte Rim~     3
## 10 Anisocoma       acaulis         <NA>       Boyd Deep Canyon, Bur~     3
## # ... with 294 more rows
```

```r
rareAnimals
```

```
## # A tibble: 52 x 5
##    genus            species      sublabel1 reserve_list              count
##    <chr>            <chr>        <chr>     <chr>                     <int>
##  1 Actinemys        marmorata    <NA>      Angelo Coast Range Reser~     3
##  2 Alectoris        chukar       <NA>      Motte Rimrock Reserve, S~     2
##  3 Ammospermophilus leucurus     <NA>      Boyd Deep Canyon Desert ~     1
##  4 Amphispiza       bilineata    <NA>      Boyd Deep Canyon Desert ~     3
##  5 Anas             penelope     <NA>      Bodega Marine Reserve, C~     3
##  6 Aythya           marila       <NA>      Bodega Marine Reserve         1
##  7 Batrachoseps     nigriventris <NA>      Elliot Chaparral Reserve~     2
##  8 Botaurus         lentiginosus <NA>      Boyd Deep Canyon Desert ~     3
##  9 Bubulcus         ibis         <NA>      Boyd Deep Canyon Desert ~     3
## 10 Callisaurus      draconoides  <NA>      Boyd Deep Canyon Desert ~     2
## # ... with 42 more rows
```
